{
    "name": "simplecov_custom_profile.rb", 
    "tot_risk": 703.0, 
    "lines": [
        {
            "author_risks": {
                "Parker Moore": {
                    "tot_knowledge": 1000.0, 
                    "tot_orphaned": 0.0, 
                    "tot_risk": 100.0
                }
            }, 
            "tot_knowledge": 1000.0, 
            "tot_orphaned": 0.0, 
            "tot_risk": 100.0
        }, 
        {
            "author_risks": {
                "Parker Moore": {
                    "tot_knowledge": 1000.0, 
                    "tot_orphaned": 0.0, 
                    "tot_risk": 100.0
                }
            }, 
            "tot_knowledge": 1000.0, 
            "tot_orphaned": 0.0, 
            "tot_risk": 100.0
        }, 
        {
            "author_risks": {
                "Fabian Rodriguez": {
                    "tot_knowledge": 100.0, 
                    "tot_orphaned": 0.0, 
                    "tot_risk": 10.0
                }, 
                "Brint O'Hearn\nFabian Rodriguez": {
                    "tot_knowledge": 900.0, 
                    "tot_orphaned": 0.0, 
                    "tot_risk": 9.000000000000002
                }, 
                "Brint O'Hearn": {
                    "tot_knowledge": 100.0, 
                    "tot_orphaned": 0.0, 
                    "tot_risk": 10.0
                }
            }, 
            "tot_knowledge": 1100.0, 
            "tot_orphaned": 0.0, 
            "tot_risk": 29.0
        }, 
        {
            "author_risks": {
                "Fabian Rodriguez": {
                    "tot_knowledge": 1000.0, 
                    "tot_orphaned": 0.0, 
                    "tot_risk": 100.0
                }
            }, 
            "tot_knowledge": 1000.0, 
            "tot_orphaned": 0.0, 
            "tot_risk": 100.0
        }, 
        {
            "author_risks": {
                "Fabian Rodriguez": {
                    "tot_knowledge": 100.0, 
                    "tot_orphaned": 0.0, 
                    "tot_risk": 10.0
                }, 
                "Brint O'Hearn\nFabian Rodriguez": {
                    "tot_knowledge": 900.0, 
                    "tot_orphaned": 0.0, 
                    "tot_risk": 9.000000000000002
                }, 
                "Brint O'Hearn": {
                    "tot_knowledge": 100.0, 
                    "tot_orphaned": 0.0, 
                    "tot_risk": 10.0
                }
            }, 
            "tot_knowledge": 1100.0, 
            "tot_orphaned": 0.0, 
            "tot_risk": 29.0
        }, 
        {
            "author_risks": {
                "Fabian Rodriguez": {
                    "tot_knowledge": 100.0, 
                    "tot_orphaned": 0.0, 
                    "tot_risk": 10.0
                }, 
                "Brint O'Hearn\nFabian Rodriguez": {
                    "tot_knowledge": 900.0, 
                    "tot_orphaned": 0.0, 
                    "tot_risk": 9.000000000000002
                }, 
                "Brint O'Hearn": {
                    "tot_knowledge": 100.0, 
                    "tot_orphaned": 0.0, 
                    "tot_risk": 10.0
                }
            }, 
            "tot_knowledge": 1100.0, 
            "tot_orphaned": 0.0, 
            "tot_risk": 29.0
        }, 
        {
            "author_risks": {
                "Fabian Rodriguez": {
                    "tot_knowledge": 100.0, 
                    "tot_orphaned": 0.0, 
                    "tot_risk": 10.0
                }, 
                "Brint O'Hearn\nFabian Rodriguez": {
                    "tot_knowledge": 900.0, 
                    "tot_orphaned": 0.0, 
                    "tot_risk": 9.000000000000002
                }, 
                "Brint O'Hearn": {
                    "tot_knowledge": 100.0, 
                    "tot_orphaned": 0.0, 
                    "tot_risk": 10.0
                }
            }, 
            "tot_knowledge": 1100.0, 
            "tot_orphaned": 0.0, 
            "tot_risk": 29.0
        }, 
        {
            "author_risks": {
                "Fabian Rodriguez": {
                    "tot_knowledge": 100.0, 
                    "tot_orphaned": 0.0, 
                    "tot_risk": 10.0
                }, 
                "Brint O'Hearn\nFabian Rodriguez": {
                    "tot_knowledge": 900.0, 
                    "tot_orphaned": 0.0, 
                    "tot_risk": 9.000000000000002
                }, 
                "Brint O'Hearn": {
                    "tot_knowledge": 100.0, 
                    "tot_orphaned": 0.0, 
                    "tot_risk": 10.0
                }
            }, 
            "tot_knowledge": 1100.0, 
            "tot_orphaned": 0.0, 
            "tot_risk": 29.0
        }, 
        {
            "author_risks": {
                "Fabian Rodriguez": {
                    "tot_knowledge": 1000.0, 
                    "tot_orphaned": 0.0, 
                    "tot_risk": 100.0
                }
            }, 
            "tot_knowledge": 1000.0, 
            "tot_orphaned": 0.0, 
            "tot_risk": 100.0
        }, 
        {
            "author_risks": {
                "Fabian Rodriguez": {
                    "tot_knowledge": 100.0, 
                    "tot_orphaned": 0.0, 
                    "tot_risk": 10.0
                }, 
                "Brint O'Hearn\nFabian Rodriguez": {
                    "tot_knowledge": 900.0, 
                    "tot_orphaned": 0.0, 
                    "tot_risk": 9.000000000000002
                }, 
                "Brint O'Hearn": {
                    "tot_knowledge": 100.0, 
                    "tot_orphaned": 0.0, 
                    "tot_risk": 10.0
                }
            }, 
            "tot_knowledge": 1100.0, 
            "tot_orphaned": 0.0, 
            "tot_risk": 29.0
        }, 
        {
            "author_risks": {
                "Fabian Rodriguez": {
                    "tot_knowledge": 100.0, 
                    "tot_orphaned": 0.0, 
                    "tot_risk": 10.0
                }, 
                "Brint O'Hearn\nFabian Rodriguez": {
                    "tot_knowledge": 900.0, 
                    "tot_orphaned": 0.0, 
                    "tot_risk": 9.000000000000002
                }, 
                "Brint O'Hearn": {
                    "tot_knowledge": 100.0, 
                    "tot_orphaned": 0.0, 
                    "tot_risk": 10.0
                }
            }, 
            "tot_knowledge": 1100.0, 
            "tot_orphaned": 0.0, 
            "tot_risk": 29.0
        }, 
        {
            "author_risks": {
                "Fabian Rodriguez": {
                    "tot_knowledge": 1000.0, 
                    "tot_orphaned": 0.0, 
                    "tot_risk": 100.0
                }
            }, 
            "tot_knowledge": 1000.0, 
            "tot_orphaned": 0.0, 
            "tot_risk": 100.0
        }
    ], 
    "tot_orphaned": 0.0, 
    "author_risks": {
        "Fabian Rodriguez": {
            "tot_knowledge": 3700.0, 
            "tot_orphaned": 0.0, 
            "tot_risk": 370.0
        }, 
        "Parker Moore": {
            "tot_knowledge": 2000.0, 
            "tot_orphaned": 0.0, 
            "tot_risk": 200.0
        }, 
        "Brint O'Hearn": {
            "tot_knowledge": 700.0, 
            "tot_orphaned": 0.0, 
            "tot_risk": 70.0
        }, 
        "Brint O'Hearn\nFabian Rodriguez": {
            "tot_knowledge": 6300.0, 
            "tot_orphaned": 0.0, 
            "tot_risk": 63.00000000000001
        }
    }, 
    "tot_knowledge": 12700.0
}