{
    "name": "base.js", 
    "tot_risk": 100.0, 
    "lines": [
        {
            "author_risks": {
                "ashmaroli": {
                    "tot_knowledge": 1000.0, 
                    "tot_orphaned": 0.0, 
                    "tot_risk": 100.0
                }
            }, 
            "tot_knowledge": 1000.0, 
            "tot_orphaned": 0.0, 
            "tot_risk": 100.0
        }, 
        {
            "author_risks": {
                "null": {
                    "tot_knowledge": null, 
                    "tot_orphaned": null, 
                    "tot_risk": null
                }
            }, 
            "tot_knowledge": null, 
            "tot_orphaned": null, 
            "tot_risk": null
        }
    ], 
    "tot_orphaned": 0.0, 
    "author_risks": {
        "ashmaroli": {
            "tot_knowledge": 1000.0, 
            "tot_orphaned": 0.0, 
            "tot_risk": 100.0
        }, 
        "null": {
            "tot_knowledge": null, 
            "tot_orphaned": null, 
            "tot_risk": null
        }
    }, 
    "tot_knowledge": 1000.0
}