{
    "name": "url_drop.rb", 
    "tot_risk": 7676.636363636364, 
    "lines": [
        {
            "author_risks": {
                "Parker Moore": {
                    "tot_knowledge": 1000.0, 
                    "tot_orphaned": 0.0, 
                    "tot_risk": 100.0
                }
            }, 
            "tot_knowledge": 1000.0, 
            "tot_orphaned": 0.0, 
            "tot_risk": 100.0
        }, 
        {
            "author_risks": {
                "Parker Moore": {
                    "tot_knowledge": 1000.0, 
                    "tot_orphaned": 0.0, 
                    "tot_risk": 100.0
                }
            }, 
            "tot_knowledge": 1000.0, 
            "tot_orphaned": 0.0, 
            "tot_risk": 100.0
        }, 
        {
            "author_risks": {
                "Parker Moore": {
                    "tot_knowledge": 1000.0, 
                    "tot_orphaned": 0.0, 
                    "tot_risk": 100.0
                }
            }, 
            "tot_knowledge": 1000.0, 
            "tot_orphaned": 0.0, 
            "tot_risk": 100.0
        }, 
        {
            "author_risks": {
                "Parker Moore": {
                    "tot_knowledge": 1000.0, 
                    "tot_orphaned": 0.0, 
                    "tot_risk": 100.0
                }
            }, 
            "tot_knowledge": 1000.0, 
            "tot_orphaned": 0.0, 
            "tot_risk": 100.0
        }, 
        {
            "author_risks": {
                "Parker Moore": {
                    "tot_knowledge": 1100.0, 
                    "tot_orphaned": 0.0, 
                    "tot_risk": 110.0
                }
            }, 
            "tot_knowledge": 1100.0, 
            "tot_orphaned": 0.0, 
            "tot_risk": 110.0
        }, 
        {
            "author_risks": {
                "Parker Moore": {
                    "tot_knowledge": 1000.0, 
                    "tot_orphaned": 0.0, 
                    "tot_risk": 100.0
                }
            }, 
            "tot_knowledge": 1000.0, 
            "tot_orphaned": 0.0, 
            "tot_risk": 100.0
        }, 
        {
            "author_risks": {
                "Parker Moore": {
                    "tot_knowledge": 1000.0, 
                    "tot_orphaned": 0.0, 
                    "tot_risk": 100.0
                }
            }, 
            "tot_knowledge": 1000.0, 
            "tot_orphaned": 0.0, 
            "tot_risk": 100.0
        }, 
        {
            "author_risks": {
                "Parker Moore": {
                    "tot_knowledge": 1000.0, 
                    "tot_orphaned": 0.0, 
                    "tot_risk": 100.0
                }
            }, 
            "tot_knowledge": 1000.0, 
            "tot_orphaned": 0.0, 
            "tot_risk": 100.0
        }, 
        {
            "author_risks": {
                "Parker Moore": {
                    "tot_knowledge": 1000.0, 
                    "tot_orphaned": 0.0, 
                    "tot_risk": 100.0
                }
            }, 
            "tot_knowledge": 1000.0, 
            "tot_orphaned": 0.0, 
            "tot_risk": 100.0
        }, 
        {
            "author_risks": {
                "Parker Moore": {
                    "tot_knowledge": 1000.0, 
                    "tot_orphaned": 0.0, 
                    "tot_risk": 100.0
                }
            }, 
            "tot_knowledge": 1000.0, 
            "tot_orphaned": 0.0, 
            "tot_risk": 100.0
        }, 
        {
            "author_risks": {
                "Parker Moore": {
                    "tot_knowledge": 1000.0, 
                    "tot_orphaned": 0.0, 
                    "tot_risk": 100.0
                }
            }, 
            "tot_knowledge": 1000.0, 
            "tot_orphaned": 0.0, 
            "tot_risk": 100.0
        }, 
        {
            "author_risks": {
                "Parker Moore": {
                    "tot_knowledge": 1000.0, 
                    "tot_orphaned": 0.0, 
                    "tot_risk": 100.0
                }
            }, 
            "tot_knowledge": 1000.0, 
            "tot_orphaned": 0.0, 
            "tot_risk": 100.0
        }, 
        {
            "author_risks": {
                "Parker Moore": {
                    "tot_knowledge": 1000.0, 
                    "tot_orphaned": 0.0, 
                    "tot_risk": 100.0
                }
            }, 
            "tot_knowledge": 1000.0, 
            "tot_orphaned": 0.0, 
            "tot_risk": 100.0
        }, 
        {
            "author_risks": {
                "Parker Moore": {
                    "tot_knowledge": 1000.0, 
                    "tot_orphaned": 0.0, 
                    "tot_risk": 100.0
                }
            }, 
            "tot_knowledge": 1000.0, 
            "tot_orphaned": 0.0, 
            "tot_risk": 100.0
        }, 
        {
            "author_risks": {
                "Parker Moore": {
                    "tot_knowledge": 1000.0, 
                    "tot_orphaned": 0.0, 
                    "tot_risk": 100.0
                }
            }, 
            "tot_knowledge": 1000.0, 
            "tot_orphaned": 0.0, 
            "tot_risk": 100.0
        }, 
        {
            "author_risks": {
                "Parker Moore": {
                    "tot_knowledge": 1000.0, 
                    "tot_orphaned": 0.0, 
                    "tot_risk": 100.0
                }
            }, 
            "tot_knowledge": 1000.0, 
            "tot_orphaned": 0.0, 
            "tot_risk": 100.0
        }, 
        {
            "author_risks": {
                "Parker Moore": {
                    "tot_knowledge": 1000.0, 
                    "tot_orphaned": 0.0, 
                    "tot_risk": 100.0
                }
            }, 
            "tot_knowledge": 1000.0, 
            "tot_orphaned": 0.0, 
            "tot_risk": 100.0
        }, 
        {
            "author_risks": {
                "Parker Moore": {
                    "tot_knowledge": 1000.0, 
                    "tot_orphaned": 0.0, 
                    "tot_risk": 100.0
                }
            }, 
            "tot_knowledge": 1000.0, 
            "tot_orphaned": 0.0, 
            "tot_risk": 100.0
        }, 
        {
            "author_risks": {
                "Parker Moore": {
                    "tot_knowledge": 1000.0, 
                    "tot_orphaned": 0.0, 
                    "tot_risk": 100.0
                }
            }, 
            "tot_knowledge": 1000.0, 
            "tot_orphaned": 0.0, 
            "tot_risk": 100.0
        }, 
        {
            "author_risks": {
                "Parker Moore": {
                    "tot_knowledge": 1000.0, 
                    "tot_orphaned": 0.0, 
                    "tot_risk": 100.0
                }
            }, 
            "tot_knowledge": 1000.0, 
            "tot_orphaned": 0.0, 
            "tot_risk": 100.0
        }, 
        {
            "author_risks": {
                "Parker Moore": {
                    "tot_knowledge": 1000.0, 
                    "tot_orphaned": 0.0, 
                    "tot_risk": 100.0
                }
            }, 
            "tot_knowledge": 1000.0, 
            "tot_orphaned": 0.0, 
            "tot_risk": 100.0
        }, 
        {
            "author_risks": {
                "Pat Hawks": {
                    "tot_knowledge": 200.0, 
                    "tot_orphaned": 0.0, 
                    "tot_risk": 20.0
                }, 
                "Parker Moore\nPat Hawks": {
                    "tot_knowledge": 981.8181818181819, 
                    "tot_orphaned": 0.0, 
                    "tot_risk": 9.81818181818182
                }, 
                "Parker Moore": {
                    "tot_knowledge": 18.181818181818173, 
                    "tot_orphaned": 0.0, 
                    "tot_risk": 1.8181818181818175
                }
            }, 
            "tot_knowledge": 1200.0, 
            "tot_orphaned": 0.0, 
            "tot_risk": 31.636363636363637
        }, 
        {
            "author_risks": {
                "Pat Hawks": {
                    "tot_knowledge": 100.0, 
                    "tot_orphaned": 0.0, 
                    "tot_risk": 10.0
                }, 
                "Parker Moore\nPat Hawks": {
                    "tot_knowledge": 900.0, 
                    "tot_orphaned": 0.0, 
                    "tot_risk": 9.000000000000002
                }, 
                "Parker Moore": {
                    "tot_knowledge": 100.0, 
                    "tot_orphaned": 0.0, 
                    "tot_risk": 10.0
                }
            }, 
            "tot_knowledge": 1100.0, 
            "tot_orphaned": 0.0, 
            "tot_risk": 29.0
        }, 
        {
            "author_risks": {
                "Parker Moore": {
                    "tot_knowledge": 1000.0, 
                    "tot_orphaned": 0.0, 
                    "tot_risk": 100.0
                }
            }, 
            "tot_knowledge": 1000.0, 
            "tot_orphaned": 0.0, 
            "tot_risk": 100.0
        }, 
        {
            "author_risks": {
                "Parker Moore": {
                    "tot_knowledge": 1000.0, 
                    "tot_orphaned": 0.0, 
                    "tot_risk": 100.0
                }
            }, 
            "tot_knowledge": 1000.0, 
            "tot_orphaned": 0.0, 
            "tot_risk": 100.0
        }, 
        {
            "author_risks": {
                "Parker Moore": {
                    "tot_knowledge": 1000.0, 
                    "tot_orphaned": 0.0, 
                    "tot_risk": 100.0
                }
            }, 
            "tot_knowledge": 1000.0, 
            "tot_orphaned": 0.0, 
            "tot_risk": 100.0
        }, 
        {
            "author_risks": {
                "Pat Hawks": {
                    "tot_knowledge": 100.0, 
                    "tot_orphaned": 0.0, 
                    "tot_risk": 10.0
                }, 
                "Parker Moore\nPat Hawks": {
                    "tot_knowledge": 900.0, 
                    "tot_orphaned": 0.0, 
                    "tot_risk": 9.000000000000002
                }, 
                "Parker Moore": {
                    "tot_knowledge": 100.0, 
                    "tot_orphaned": 0.0, 
                    "tot_risk": 10.0
                }
            }, 
            "tot_knowledge": 1100.0, 
            "tot_orphaned": 0.0, 
            "tot_risk": 29.0
        }, 
        {
            "author_risks": {
                "Parker Moore": {
                    "tot_knowledge": 1000.0, 
                    "tot_orphaned": 0.0, 
                    "tot_risk": 100.0
                }
            }, 
            "tot_knowledge": 1000.0, 
            "tot_orphaned": 0.0, 
            "tot_risk": 100.0
        }, 
        {
            "author_risks": {
                "Parker Moore": {
                    "tot_knowledge": 1000.0, 
                    "tot_orphaned": 0.0, 
                    "tot_risk": 100.0
                }
            }, 
            "tot_knowledge": 1000.0, 
            "tot_orphaned": 0.0, 
            "tot_risk": 100.0
        }, 
        {
            "author_risks": {
                "Parker Moore": {
                    "tot_knowledge": 1000.0, 
                    "tot_orphaned": 0.0, 
                    "tot_risk": 100.0
                }
            }, 
            "tot_knowledge": 1000.0, 
            "tot_orphaned": 0.0, 
            "tot_risk": 100.0
        }, 
        {
            "author_risks": {
                "Parker Moore": {
                    "tot_knowledge": 1000.0, 
                    "tot_orphaned": 0.0, 
                    "tot_risk": 100.0
                }
            }, 
            "tot_knowledge": 1000.0, 
            "tot_orphaned": 0.0, 
            "tot_risk": 100.0
        }, 
        {
            "author_risks": {
                "Pat Hawks": {
                    "tot_knowledge": 100.0, 
                    "tot_orphaned": 0.0, 
                    "tot_risk": 10.0
                }, 
                "Parker Moore\nPat Hawks": {
                    "tot_knowledge": 900.0, 
                    "tot_orphaned": 0.0, 
                    "tot_risk": 9.000000000000002
                }, 
                "Parker Moore": {
                    "tot_knowledge": 100.0, 
                    "tot_orphaned": 0.0, 
                    "tot_risk": 10.0
                }
            }, 
            "tot_knowledge": 1100.0, 
            "tot_orphaned": 0.0, 
            "tot_risk": 29.0
        }, 
        {
            "author_risks": {
                "Parker Moore": {
                    "tot_knowledge": 1000.0, 
                    "tot_orphaned": 0.0, 
                    "tot_risk": 100.0
                }
            }, 
            "tot_knowledge": 1000.0, 
            "tot_orphaned": 0.0, 
            "tot_risk": 100.0
        }, 
        {
            "author_risks": {
                "Parker Moore": {
                    "tot_knowledge": 1000.0, 
                    "tot_orphaned": 0.0, 
                    "tot_risk": 100.0
                }
            }, 
            "tot_knowledge": 1000.0, 
            "tot_orphaned": 0.0, 
            "tot_risk": 100.0
        }, 
        {
            "author_risks": {
                "Pat Hawks": {
                    "tot_knowledge": 100.0, 
                    "tot_orphaned": 0.0, 
                    "tot_risk": 10.0
                }, 
                "Parker Moore\nPat Hawks": {
                    "tot_knowledge": 900.0, 
                    "tot_orphaned": 0.0, 
                    "tot_risk": 9.000000000000002
                }, 
                "Parker Moore": {
                    "tot_knowledge": 100.0, 
                    "tot_orphaned": 0.0, 
                    "tot_risk": 10.0
                }
            }, 
            "tot_knowledge": 1100.0, 
            "tot_orphaned": 0.0, 
            "tot_risk": 29.0
        }, 
        {
            "author_risks": {
                "Parker Moore": {
                    "tot_knowledge": 1000.0, 
                    "tot_orphaned": 0.0, 
                    "tot_risk": 100.0
                }
            }, 
            "tot_knowledge": 1000.0, 
            "tot_orphaned": 0.0, 
            "tot_risk": 100.0
        }, 
        {
            "author_risks": {
                "Parker Moore": {
                    "tot_knowledge": 1000.0, 
                    "tot_orphaned": 0.0, 
                    "tot_risk": 100.0
                }
            }, 
            "tot_knowledge": 1000.0, 
            "tot_orphaned": 0.0, 
            "tot_risk": 100.0
        }, 
        {
            "author_risks": {
                "Pat Hawks": {
                    "tot_knowledge": 100.0, 
                    "tot_orphaned": 0.0, 
                    "tot_risk": 10.0
                }, 
                "Parker Moore\nPat Hawks": {
                    "tot_knowledge": 900.0, 
                    "tot_orphaned": 0.0, 
                    "tot_risk": 9.000000000000002
                }, 
                "Parker Moore": {
                    "tot_knowledge": 100.0, 
                    "tot_orphaned": 0.0, 
                    "tot_risk": 10.0
                }
            }, 
            "tot_knowledge": 1100.0, 
            "tot_orphaned": 0.0, 
            "tot_risk": 29.0
        }, 
        {
            "author_risks": {
                "Pat Hawks": {
                    "tot_knowledge": 100.0, 
                    "tot_orphaned": 0.0, 
                    "tot_risk": 10.0
                }, 
                "Parker Moore\nPat Hawks": {
                    "tot_knowledge": 900.0, 
                    "tot_orphaned": 0.0, 
                    "tot_risk": 9.000000000000002
                }, 
                "Parker Moore": {
                    "tot_knowledge": 100.0, 
                    "tot_orphaned": 0.0, 
                    "tot_risk": 10.0
                }
            }, 
            "tot_knowledge": 1100.0, 
            "tot_orphaned": 0.0, 
            "tot_risk": 29.0
        }, 
        {
            "author_risks": {
                "Pat Hawks": {
                    "tot_knowledge": 100.0, 
                    "tot_orphaned": 0.0, 
                    "tot_risk": 10.0
                }, 
                "Parker Moore\nPat Hawks": {
                    "tot_knowledge": 900.0, 
                    "tot_orphaned": 0.0, 
                    "tot_risk": 9.000000000000002
                }, 
                "Parker Moore": {
                    "tot_knowledge": 100.0, 
                    "tot_orphaned": 0.0, 
                    "tot_risk": 10.0
                }
            }, 
            "tot_knowledge": 1100.0, 
            "tot_orphaned": 0.0, 
            "tot_risk": 29.0
        }, 
        {
            "author_risks": {
                "Pat Hawks": {
                    "tot_knowledge": 100.0, 
                    "tot_orphaned": 0.0, 
                    "tot_risk": 10.0
                }, 
                "Parker Moore\nPat Hawks": {
                    "tot_knowledge": 900.0, 
                    "tot_orphaned": 0.0, 
                    "tot_risk": 9.000000000000002
                }, 
                "Parker Moore": {
                    "tot_knowledge": 100.0, 
                    "tot_orphaned": 0.0, 
                    "tot_risk": 10.0
                }
            }, 
            "tot_knowledge": 1100.0, 
            "tot_orphaned": 0.0, 
            "tot_risk": 29.0
        }, 
        {
            "author_risks": {
                "Pat Hawks": {
                    "tot_knowledge": 100.0, 
                    "tot_orphaned": 0.0, 
                    "tot_risk": 10.0
                }, 
                "Parker Moore\nPat Hawks": {
                    "tot_knowledge": 900.0, 
                    "tot_orphaned": 0.0, 
                    "tot_risk": 9.000000000000002
                }, 
                "Parker Moore": {
                    "tot_knowledge": 100.0, 
                    "tot_orphaned": 0.0, 
                    "tot_risk": 10.0
                }
            }, 
            "tot_knowledge": 1100.0, 
            "tot_orphaned": 0.0, 
            "tot_risk": 29.0
        }, 
        {
            "author_risks": {
                "Pat Hawks": {
                    "tot_knowledge": 100.0, 
                    "tot_orphaned": 0.0, 
                    "tot_risk": 10.0
                }, 
                "Parker Moore\nPat Hawks": {
                    "tot_knowledge": 900.0, 
                    "tot_orphaned": 0.0, 
                    "tot_risk": 9.000000000000002
                }, 
                "Parker Moore": {
                    "tot_knowledge": 100.0, 
                    "tot_orphaned": 0.0, 
                    "tot_risk": 10.0
                }
            }, 
            "tot_knowledge": 1100.0, 
            "tot_orphaned": 0.0, 
            "tot_risk": 29.0
        }, 
        {
            "author_risks": {
                "Pat Hawks": {
                    "tot_knowledge": 100.0, 
                    "tot_orphaned": 0.0, 
                    "tot_risk": 10.0
                }, 
                "Parker Moore\nPat Hawks": {
                    "tot_knowledge": 900.0, 
                    "tot_orphaned": 0.0, 
                    "tot_risk": 9.000000000000002
                }, 
                "Parker Moore": {
                    "tot_knowledge": 100.0, 
                    "tot_orphaned": 0.0, 
                    "tot_risk": 10.0
                }
            }, 
            "tot_knowledge": 1100.0, 
            "tot_orphaned": 0.0, 
            "tot_risk": 29.0
        }, 
        {
            "author_risks": {
                "Pat Hawks": {
                    "tot_knowledge": 100.0, 
                    "tot_orphaned": 0.0, 
                    "tot_risk": 10.0
                }, 
                "Parker Moore\nPat Hawks": {
                    "tot_knowledge": 900.0, 
                    "tot_orphaned": 0.0, 
                    "tot_risk": 9.000000000000002
                }, 
                "Parker Moore": {
                    "tot_knowledge": 100.0, 
                    "tot_orphaned": 0.0, 
                    "tot_risk": 10.0
                }
            }, 
            "tot_knowledge": 1100.0, 
            "tot_orphaned": 0.0, 
            "tot_risk": 29.0
        }, 
        {
            "author_risks": {
                "Pat Hawks": {
                    "tot_knowledge": 100.0, 
                    "tot_orphaned": 0.0, 
                    "tot_risk": 10.0
                }, 
                "Parker Moore\nPat Hawks": {
                    "tot_knowledge": 900.0, 
                    "tot_orphaned": 0.0, 
                    "tot_risk": 9.000000000000002
                }, 
                "Parker Moore": {
                    "tot_knowledge": 100.0, 
                    "tot_orphaned": 0.0, 
                    "tot_risk": 10.0
                }
            }, 
            "tot_knowledge": 1100.0, 
            "tot_orphaned": 0.0, 
            "tot_risk": 29.0
        }, 
        {
            "author_risks": {
                "Pat Hawks": {
                    "tot_knowledge": 100.0, 
                    "tot_orphaned": 0.0, 
                    "tot_risk": 10.0
                }, 
                "Parker Moore\nPat Hawks": {
                    "tot_knowledge": 900.0, 
                    "tot_orphaned": 0.0, 
                    "tot_risk": 9.000000000000002
                }, 
                "Parker Moore": {
                    "tot_knowledge": 100.0, 
                    "tot_orphaned": 0.0, 
                    "tot_risk": 10.0
                }
            }, 
            "tot_knowledge": 1100.0, 
            "tot_orphaned": 0.0, 
            "tot_risk": 29.0
        }, 
        {
            "author_risks": {
                "Pat Hawks": {
                    "tot_knowledge": 100.0, 
                    "tot_orphaned": 0.0, 
                    "tot_risk": 10.0
                }, 
                "Parker Moore\nPat Hawks": {
                    "tot_knowledge": 900.0, 
                    "tot_orphaned": 0.0, 
                    "tot_risk": 9.000000000000002
                }, 
                "Parker Moore": {
                    "tot_knowledge": 100.0, 
                    "tot_orphaned": 0.0, 
                    "tot_risk": 10.0
                }
            }, 
            "tot_knowledge": 1100.0, 
            "tot_orphaned": 0.0, 
            "tot_risk": 29.0
        }, 
        {
            "author_risks": {
                "Pat Hawks": {
                    "tot_knowledge": 1000.0, 
                    "tot_orphaned": 0.0, 
                    "tot_risk": 100.0
                }
            }, 
            "tot_knowledge": 1000.0, 
            "tot_orphaned": 0.0, 
            "tot_risk": 100.0
        }, 
        {
            "author_risks": {
                "Pat Hawks": {
                    "tot_knowledge": 1000.0, 
                    "tot_orphaned": 0.0, 
                    "tot_risk": 100.0
                }
            }, 
            "tot_knowledge": 1000.0, 
            "tot_orphaned": 0.0, 
            "tot_risk": 100.0
        }, 
        {
            "author_risks": {
                "Pat Hawks": {
                    "tot_knowledge": 1000.0, 
                    "tot_orphaned": 0.0, 
                    "tot_risk": 100.0
                }
            }, 
            "tot_knowledge": 1000.0, 
            "tot_orphaned": 0.0, 
            "tot_risk": 100.0
        }, 
        {
            "author_risks": {
                "Pat Hawks": {
                    "tot_knowledge": 1000.0, 
                    "tot_orphaned": 0.0, 
                    "tot_risk": 100.0
                }
            }, 
            "tot_knowledge": 1000.0, 
            "tot_orphaned": 0.0, 
            "tot_risk": 100.0
        }, 
        {
            "author_risks": {
                "Pat Hawks": {
                    "tot_knowledge": 1000.0, 
                    "tot_orphaned": 0.0, 
                    "tot_risk": 100.0
                }
            }, 
            "tot_knowledge": 1000.0, 
            "tot_orphaned": 0.0, 
            "tot_risk": 100.0
        }, 
        {
            "author_risks": {
                "Pat Hawks": {
                    "tot_knowledge": 1000.0, 
                    "tot_orphaned": 0.0, 
                    "tot_risk": 100.0
                }
            }, 
            "tot_knowledge": 1000.0, 
            "tot_orphaned": 0.0, 
            "tot_risk": 100.0
        }, 
        {
            "author_risks": {
                "Pat Hawks": {
                    "tot_knowledge": 1000.0, 
                    "tot_orphaned": 0.0, 
                    "tot_risk": 100.0
                }
            }, 
            "tot_knowledge": 1000.0, 
            "tot_orphaned": 0.0, 
            "tot_risk": 100.0
        }, 
        {
            "author_risks": {
                "Pat Hawks": {
                    "tot_knowledge": 1000.0, 
                    "tot_orphaned": 0.0, 
                    "tot_risk": 100.0
                }
            }, 
            "tot_knowledge": 1000.0, 
            "tot_orphaned": 0.0, 
            "tot_risk": 100.0
        }, 
        {
            "author_risks": {
                "Pat Hawks": {
                    "tot_knowledge": 1000.0, 
                    "tot_orphaned": 0.0, 
                    "tot_risk": 100.0
                }
            }, 
            "tot_knowledge": 1000.0, 
            "tot_orphaned": 0.0, 
            "tot_risk": 100.0
        }, 
        {
            "author_risks": {
                "Pat Hawks": {
                    "tot_knowledge": 1000.0, 
                    "tot_orphaned": 0.0, 
                    "tot_risk": 100.0
                }
            }, 
            "tot_knowledge": 1000.0, 
            "tot_orphaned": 0.0, 
            "tot_risk": 100.0
        }, 
        {
            "author_risks": {
                "Pat Hawks": {
                    "tot_knowledge": 1000.0, 
                    "tot_orphaned": 0.0, 
                    "tot_risk": 100.0
                }
            }, 
            "tot_knowledge": 1000.0, 
            "tot_orphaned": 0.0, 
            "tot_risk": 100.0
        }, 
        {
            "author_risks": {
                "Pat Hawks": {
                    "tot_knowledge": 1000.0, 
                    "tot_orphaned": 0.0, 
                    "tot_risk": 100.0
                }
            }, 
            "tot_knowledge": 1000.0, 
            "tot_orphaned": 0.0, 
            "tot_risk": 100.0
        }, 
        {
            "author_risks": {
                "Pat Hawks": {
                    "tot_knowledge": 1000.0, 
                    "tot_orphaned": 0.0, 
                    "tot_risk": 100.0
                }
            }, 
            "tot_knowledge": 1000.0, 
            "tot_orphaned": 0.0, 
            "tot_risk": 100.0
        }, 
        {
            "author_risks": {
                "Pat Hawks": {
                    "tot_knowledge": 1000.0, 
                    "tot_orphaned": 0.0, 
                    "tot_risk": 100.0
                }
            }, 
            "tot_knowledge": 1000.0, 
            "tot_orphaned": 0.0, 
            "tot_risk": 100.0
        }, 
        {
            "author_risks": {
                "Pat Hawks": {
                    "tot_knowledge": 1000.0, 
                    "tot_orphaned": 0.0, 
                    "tot_risk": 100.0
                }
            }, 
            "tot_knowledge": 1000.0, 
            "tot_orphaned": 0.0, 
            "tot_risk": 100.0
        }, 
        {
            "author_risks": {
                "Pat Hawks": {
                    "tot_knowledge": 1000.0, 
                    "tot_orphaned": 0.0, 
                    "tot_risk": 100.0
                }
            }, 
            "tot_knowledge": 1000.0, 
            "tot_orphaned": 0.0, 
            "tot_risk": 100.0
        }, 
        {
            "author_risks": {
                "Pat Hawks": {
                    "tot_knowledge": 1000.0, 
                    "tot_orphaned": 0.0, 
                    "tot_risk": 100.0
                }
            }, 
            "tot_knowledge": 1000.0, 
            "tot_orphaned": 0.0, 
            "tot_risk": 100.0
        }, 
        {
            "author_risks": {
                "Pat Hawks": {
                    "tot_knowledge": 1000.0, 
                    "tot_orphaned": 0.0, 
                    "tot_risk": 100.0
                }
            }, 
            "tot_knowledge": 1000.0, 
            "tot_orphaned": 0.0, 
            "tot_risk": 100.0
        }, 
        {
            "author_risks": {
                "Pat Hawks": {
                    "tot_knowledge": 1000.0, 
                    "tot_orphaned": 0.0, 
                    "tot_risk": 100.0
                }
            }, 
            "tot_knowledge": 1000.0, 
            "tot_orphaned": 0.0, 
            "tot_risk": 100.0
        }, 
        {
            "author_risks": {
                "Pat Hawks": {
                    "tot_knowledge": 1000.0, 
                    "tot_orphaned": 0.0, 
                    "tot_risk": 100.0
                }
            }, 
            "tot_knowledge": 1000.0, 
            "tot_orphaned": 0.0, 
            "tot_risk": 100.0
        }, 
        {
            "author_risks": {
                "Pat Hawks": {
                    "tot_knowledge": 1000.0, 
                    "tot_orphaned": 0.0, 
                    "tot_risk": 100.0
                }
            }, 
            "tot_knowledge": 1000.0, 
            "tot_orphaned": 0.0, 
            "tot_risk": 100.0
        }, 
        {
            "author_risks": {
                "Pat Hawks": {
                    "tot_knowledge": 1000.0, 
                    "tot_orphaned": 0.0, 
                    "tot_risk": 100.0
                }
            }, 
            "tot_knowledge": 1000.0, 
            "tot_orphaned": 0.0, 
            "tot_risk": 100.0
        }, 
        {
            "author_risks": {
                "Pat Hawks": {
                    "tot_knowledge": 1000.0, 
                    "tot_orphaned": 0.0, 
                    "tot_risk": 100.0
                }
            }, 
            "tot_knowledge": 1000.0, 
            "tot_orphaned": 0.0, 
            "tot_risk": 100.0
        }, 
        {
            "author_risks": {
                "Pat Hawks": {
                    "tot_knowledge": 1000.0, 
                    "tot_orphaned": 0.0, 
                    "tot_risk": 100.0
                }
            }, 
            "tot_knowledge": 1000.0, 
            "tot_orphaned": 0.0, 
            "tot_risk": 100.0
        }, 
        {
            "author_risks": {
                "Pat Hawks": {
                    "tot_knowledge": 1000.0, 
                    "tot_orphaned": 0.0, 
                    "tot_risk": 100.0
                }
            }, 
            "tot_knowledge": 1000.0, 
            "tot_orphaned": 0.0, 
            "tot_risk": 100.0
        }, 
        {
            "author_risks": {
                "Pat Hawks": {
                    "tot_knowledge": 1000.0, 
                    "tot_orphaned": 0.0, 
                    "tot_risk": 100.0
                }
            }, 
            "tot_knowledge": 1000.0, 
            "tot_orphaned": 0.0, 
            "tot_risk": 100.0
        }, 
        {
            "author_risks": {
                "Pat Hawks": {
                    "tot_knowledge": 1000.0, 
                    "tot_orphaned": 0.0, 
                    "tot_risk": 100.0
                }
            }, 
            "tot_knowledge": 1000.0, 
            "tot_orphaned": 0.0, 
            "tot_risk": 100.0
        }, 
        {
            "author_risks": {
                "Pat Hawks": {
                    "tot_knowledge": 1000.0, 
                    "tot_orphaned": 0.0, 
                    "tot_risk": 100.0
                }
            }, 
            "tot_knowledge": 1000.0, 
            "tot_orphaned": 0.0, 
            "tot_risk": 100.0
        }, 
        {
            "author_risks": {
                "Pat Hawks": {
                    "tot_knowledge": 1000.0, 
                    "tot_orphaned": 0.0, 
                    "tot_risk": 100.0
                }
            }, 
            "tot_knowledge": 1000.0, 
            "tot_orphaned": 0.0, 
            "tot_risk": 100.0
        }, 
        {
            "author_risks": {
                "Pat Hawks": {
                    "tot_knowledge": 1000.0, 
                    "tot_orphaned": 0.0, 
                    "tot_risk": 100.0
                }
            }, 
            "tot_knowledge": 1000.0, 
            "tot_orphaned": 0.0, 
            "tot_risk": 100.0
        }, 
        {
            "author_risks": {
                "Pat Hawks": {
                    "tot_knowledge": 1000.0, 
                    "tot_orphaned": 0.0, 
                    "tot_risk": 100.0
                }
            }, 
            "tot_knowledge": 1000.0, 
            "tot_orphaned": 0.0, 
            "tot_risk": 100.0
        }, 
        {
            "author_risks": {
                "Pat Hawks": {
                    "tot_knowledge": 1000.0, 
                    "tot_orphaned": 0.0, 
                    "tot_risk": 100.0
                }
            }, 
            "tot_knowledge": 1000.0, 
            "tot_orphaned": 0.0, 
            "tot_risk": 100.0
        }, 
        {
            "author_risks": {
                "fen": {
                    "tot_knowledge": 1000.0, 
                    "tot_orphaned": 0.0, 
                    "tot_risk": 100.0
                }
            }, 
            "tot_knowledge": 1000.0, 
            "tot_orphaned": 0.0, 
            "tot_risk": 100.0
        }, 
        {
            "author_risks": {
                "fen": {
                    "tot_knowledge": 1000.0, 
                    "tot_orphaned": 0.0, 
                    "tot_risk": 100.0
                }
            }, 
            "tot_knowledge": 1000.0, 
            "tot_orphaned": 0.0, 
            "tot_risk": 100.0
        }, 
        {
            "author_risks": {
                "fen": {
                    "tot_knowledge": 1000.0, 
                    "tot_orphaned": 0.0, 
                    "tot_risk": 100.0
                }
            }, 
            "tot_knowledge": 1000.0, 
            "tot_orphaned": 0.0, 
            "tot_risk": 100.0
        }, 
        {
            "author_risks": {
                "fen": {
                    "tot_knowledge": 1000.0, 
                    "tot_orphaned": 0.0, 
                    "tot_risk": 100.0
                }
            }, 
            "tot_knowledge": 1000.0, 
            "tot_orphaned": 0.0, 
            "tot_risk": 100.0
        }, 
        {
            "author_risks": {
                "fen": {
                    "tot_knowledge": 1000.0, 
                    "tot_orphaned": 0.0, 
                    "tot_risk": 100.0
                }
            }, 
            "tot_knowledge": 1000.0, 
            "tot_orphaned": 0.0, 
            "tot_risk": 100.0
        }, 
        {
            "author_risks": {
                "Parker Moore": {
                    "tot_knowledge": 1000.0, 
                    "tot_orphaned": 0.0, 
                    "tot_risk": 100.0
                }
            }, 
            "tot_knowledge": 1000.0, 
            "tot_orphaned": 0.0, 
            "tot_risk": 100.0
        }, 
        {
            "author_risks": {
                "Parker Moore": {
                    "tot_knowledge": 1000.0, 
                    "tot_orphaned": 0.0, 
                    "tot_risk": 100.0
                }
            }, 
            "tot_knowledge": 1000.0, 
            "tot_orphaned": 0.0, 
            "tot_risk": 100.0
        }, 
        {
            "author_risks": {
                "Parker Moore": {
                    "tot_knowledge": 1000.0, 
                    "tot_orphaned": 0.0, 
                    "tot_risk": 100.0
                }
            }, 
            "tot_knowledge": 1000.0, 
            "tot_orphaned": 0.0, 
            "tot_risk": 100.0
        }
    ], 
    "tot_orphaned": 0.0, 
    "author_risks": {
        "fen": {
            "tot_knowledge": 5000.0, 
            "tot_orphaned": 0.0, 
            "tot_risk": 500.0
        }, 
        "Pat Hawks": {
            "tot_knowledge": 33700.0, 
            "tot_orphaned": 0.0, 
            "tot_risk": 3370.0
        }, 
        "Parker Moore\nPat Hawks": {
            "tot_knowledge": 14481.818181818182, 
            "tot_orphaned": 0.0, 
            "tot_risk": 144.81818181818184
        }, 
        "Parker Moore": {
            "tot_knowledge": 36618.18181818182, 
            "tot_orphaned": 0.0, 
            "tot_risk": 3661.818181818182
        }
    }, 
    "tot_knowledge": 89800.0
}